Cell-Cell Interaction between ‘FCGR3A Mono (sender cells)’ vs ‘Memory CD4 T (receiver cells)’
…
We will first show the results of the sender-agnostic approach.

ligand_activities <- predict_ligand_activities(geneset = geneset_oi,
                                               background_expressed_genes = background_expressed_genes,
                                               ligand_target_matrix = ligand_target_matrix,
                                               potential_ligands = potential_ligands)

ligand_activities <- ligand_activities %>% arrange(-aupr_corrected) %>% mutate(rank = rank(desc(aupr_corrected)))
ligand_activities
## # A tibble: 442 × 6
##    test_ligand auroc  aupr aupr_corrected pearson  rank
##    <chr>       <dbl> <dbl>          <dbl>   <dbl> <dbl>
##  1 IGFL3       0.5   0.613         0.387   NA         1
##  2 IL4         0.623 0.370         0.144    0.242     2
##  3 IL10        0.600 0.341         0.116    0.202     3
##  4 TGFB1       0.600 0.334         0.108    0.182     4
##  5 TNF         0.611 0.331         0.105    0.164     5
##  6 IFNG        0.610 0.326         0.100    0.160     6
##  7 JAM2        0.602 0.320         0.0939   0.159     7
##  8 IL36G       0.580 0.317         0.0908   0.139     8
##  9 PF4         0.580 0.315         0.0898   0.118     9
## 10 IL13        0.577 0.315         0.0889   0.154    10
## # ℹ 432 more rows
…
